<svg xmlns="http://www.w3.org/2000/svg" width="10.97" height="6.898" viewBox="0 0 10.97 6.898">
  <path id="Path_1666" data-name="Path 1666" d="M15221.1,20609.861l4.777,4.777,4.778-4.777" transform="translate(-15220.39 -20609.154)" fill="none" stroke="#fff" stroke-width="2"/>
</svg>
