<svg xmlns="http://www.w3.org/2000/svg" width="20.648" height="25.076" viewBox="0 0 20.648 25.076">
  <g id="medal" transform="translate(-45.203 0.001)">
    <g id="Group_271" data-name="Group 271" transform="translate(45.203)">
      <g id="Group_270" data-name="Group 270" transform="translate(0)">
        <path id="Path_1129" data-name="Path 1129" d="M65.821,21.868l-3.311-7.56a8.972,8.972,0,0,0,.3-10.238.367.367,0,0,0-.615.4,8.256,8.256,0,1,1-.787-1.02.367.367,0,1,0,.545-.493A8.977,8.977,0,0,0,48.372,14.7l-3.138,7.166a.367.367,0,0,0,.406.508l3.756-.726L51.41,24.9a.367.367,0,0,0,.312.174h.026a.367.367,0,0,0,.311-.219l3.022-6.9.206,0q.342,0,.677-.025L59,24.856a.367.367,0,0,0,.311.219h.026a.367.367,0,0,0,.312-.174l2.014-3.253,3.756.726a.367.367,0,0,0,.406-.508ZM51.667,23.921l-1.779-2.874a.368.368,0,0,0-.382-.167l-3.318.642L48.913,15.3A8.958,8.958,0,0,0,54.3,17.9Zm9.882-3.041a.367.367,0,0,0-.382.167l-1.779,2.874-2.662-6.078a8.975,8.975,0,0,0,5.262-2.894l2.878,6.573Z" transform="translate(-45.203)" fill="#666"/>
      </g>
    </g>
    <g id="Group_283" data-name="Group 283" transform="translate(48.469 2.161)">
      <g id="Group_282" data-name="Group 282">
        <path id="Path_1135" data-name="Path 1135" d="M118.7,44.132a6.834,6.834,0,0,0-4.281,1.512.367.367,0,0,0,.462.571,6.083,6.083,0,1,1-2.263,4.735,6.017,6.017,0,0,1,1.327-3.793.367.367,0,0,0-.574-.458,6.745,6.745,0,0,0-1.488,4.252,6.818,6.818,0,1,0,6.818-6.818Z" transform="translate(-111.886 -44.132)" fill="#666"/>
      </g>
    </g>
  </g>
</svg>
