<svg xmlns="http://www.w3.org/2000/svg" width="97.687" height="92.999" viewBox="0 0 97.687 92.999">
  <g id="education-icon" transform="translate(0)">
    <g id="certificate" transform="translate(42.201 37.512)">
      <g id="Group_312" data-name="Group 312" transform="translate(0)">
        <g id="Group_311" data-name="Group 311">
          <path id="Path_1157" data-name="Path 1157" d="M48.555,10.079a1.084,1.084,0,0,0,1.084-1.084V3.251A3.255,3.255,0,0,0,46.387,0H3.255A3.255,3.255,0,0,0,0,3.251V52.235a3.255,3.255,0,0,0,3.251,3.251H46.387a3.255,3.255,0,0,0,3.251-3.251V49.2a1.084,1.084,0,1,0-2.167,0v3.034a1.085,1.085,0,0,1-1.084,1.084H3.255a1.085,1.085,0,0,1-1.084-1.084V3.251A1.085,1.085,0,0,1,3.255,2.167H46.387a1.085,1.085,0,0,1,1.084,1.084V8.995A1.084,1.084,0,0,0,48.555,10.079Z" transform="translate(-0.004)" fill="#009b9d"/>
        </g>
      </g>
      <g id="Group_314" data-name="Group 314" transform="translate(5.201 5.202)">
        <g id="Group_313" data-name="Group 313">
          <path id="Path_1158" data-name="Path 1158" d="M86.146,48H49.082A1.084,1.084,0,0,0,48,49.084v22.65a1.084,1.084,0,0,0,2.167,0V50.167h34.9V51.9a1.084,1.084,0,0,0,2.167,0V49.084A1.084,1.084,0,0,0,86.146,48Z" transform="translate(-47.998 -48)" fill="#009b9d"/>
        </g>
      </g>
      <g id="Group_316" data-name="Group 316" transform="translate(5.201 31.861)">
        <g id="Group_315" data-name="Group 315">
          <path id="Path_1159" data-name="Path 1159" d="M49.844,294.318a1.083,1.083,0,1,0,.318.766A1.09,1.09,0,0,0,49.844,294.318Z" transform="translate(-47.994 -294)" fill="#009b9d"/>
        </g>
      </g>
      <g id="Group_318" data-name="Group 318" transform="translate(5.201 36.034)">
        <g id="Group_317" data-name="Group 317">
          <path id="Path_1160" data-name="Path 1160" d="M86.146,342.2a1.084,1.084,0,0,0-1.084,1.084v1.3h-34.9v-11a1.084,1.084,0,1,0-2.167,0v12.083a1.084,1.084,0,0,0,1.084,1.084H86.146a1.084,1.084,0,0,0,1.084-1.084v-2.384A1.084,1.084,0,0,0,86.146,342.2Z" transform="translate(-47.998 -332.5)" fill="#009b9d"/>
        </g>
      </g>
      <g id="Group_320" data-name="Group 320" transform="translate(24.347 37.974)">
        <g id="Group_319" data-name="Group 319">
          <path id="Path_1161" data-name="Path 1161" d="M233.9,350.724a1.084,1.084,0,0,0-1.533,0l-2.142,2.142-1.331-1.331a2.158,2.158,0,0,0-3.049,0l-.866.866a1.084,1.084,0,0,0,1.533,1.533l.858-.858,1.331,1.331a2.158,2.158,0,0,0,3.049,0l2.15-2.15A1.084,1.084,0,0,0,233.9,350.724Z" transform="translate(-224.661 -350.406)" fill="#009b9d"/>
        </g>
      </g>
      <g id="Group_324" data-name="Group 324" transform="translate(40.741 20.001)">
        <g id="Group_323" data-name="Group 323">
          <path id="Path_1163" data-name="Path 1163" d="M384.35,184.875a1.084,1.084,0,0,0-1.533,0l-3.6,3.6-1.432-1.432a1.084,1.084,0,0,0-1.533,1.533l2.2,2.2a1.084,1.084,0,0,0,1.533,0l4.363-4.363A1.084,1.084,0,0,0,384.35,184.875Z" transform="translate(-375.938 -184.557)" fill="#ea6e2c"/>
        </g>
      </g>
      <g id="Group_326" data-name="Group 326" transform="translate(11.379 12.788)">
        <g id="Group_325" data-name="Group 325">
          <path id="Path_1164" data-name="Path 1164" d="M106.854,118.318a1.083,1.083,0,1,0,.318.766A1.092,1.092,0,0,0,106.854,118.318Z" transform="translate(-105.004 -118)" fill="#009b9d"/>
        </g>
      </g>
      <g id="Group_328" data-name="Group 328" transform="translate(15.424 12.788)">
        <g id="Group_327" data-name="Group 327">
          <path id="Path_1165" data-name="Path 1165" d="M148.688,118h-5.274a1.084,1.084,0,1,0,0,2.167h5.274a1.084,1.084,0,0,0,0-2.167Z" transform="translate(-142.33 -118)" fill="#009b9d"/>
        </g>
      </g>
      <g id="Group_330" data-name="Group 330" transform="translate(17.001 31.861)">
        <g id="Group_329" data-name="Group 329">
          <path id="Path_1166" data-name="Path 1166" d="M191.989,294H179.6a1.084,1.084,0,1,0,0,2.167h12.389a1.084,1.084,0,0,0,0-2.167Z" transform="translate(-178.516 -294)" fill="#009b9d"/>
        </g>
      </g>
      <g id="Group_340" data-name="Group 340" transform="translate(12.504 11.779)">
        <g id="Group_321" data-name="Group 321" transform="translate(0)">
          <rect id="Rectangle_987" data-name="Rectangle 987" width="19.407" height="2.344" rx="1.172" transform="translate(0 14.792)" fill="#009b9d"/>
          <rect id="Rectangle_988" data-name="Rectangle 988" width="19.407" height="2.344" rx="1.172" transform="translate(0 9.321)" fill="#009b9d"/>
          <path id="Path_1162" data-name="Path 1162" d="M163.779,119.647a3.153,3.153,0,0,0-1.206-4.5.988.988,0,0,1-.532-.921,3.153,3.153,0,0,0-3.3-3.3.985.985,0,0,1-.921-.532,3.153,3.153,0,0,0-4.5-1.206.988.988,0,0,1-1.063,0,3.153,3.153,0,0,0-4.5,1.206.99.99,0,0,1-.921.532,3.153,3.153,0,0,0-3.3,3.3.988.988,0,0,1-.532.921,3.159,3.159,0,0,0-1.6,1.985,3.942,3.942,0,0,0,.477,3.408.976.976,0,0,1-.086.173,3.16,3.16,0,0,0-.391,2.518,3.979,3.979,0,0,0,2.065,2.511.979.979,0,0,1,.064.394,3.153,3.153,0,0,0,3.3,3.3.987.987,0,0,1,.921.532,3.144,3.144,0,0,0,.482.688V140.77a1.084,1.084,0,0,0,1.848.768l2.7-2.689,2.7,2.689a1.084,1.084,0,0,0,1.848-.768V130.648a3.142,3.142,0,0,0,.482-.688.989.989,0,0,1,.921-.532,3.153,3.153,0,0,0,3.3-3.3.988.988,0,0,1,.532-.921,3.153,3.153,0,0,0,1.206-4.5A.987.987,0,0,1,163.779,119.647Zm-8.6,18.516-1.62-1.611a1.084,1.084,0,0,0-1.529,0l-1.62,1.611v-6.5a3.161,3.161,0,0,0,1.853-.494.988.988,0,0,1,1.063,0,3.159,3.159,0,0,0,1.7.5c.05,0,.1,0,.149,0Zm6.9-15.5a.974.974,0,0,1-.5.62,3.161,3.161,0,0,0-1.7,2.947.985.985,0,0,1-1.03,1.03,3.161,3.161,0,0,0-2.947,1.7.985.985,0,0,1-1.407.377,3.162,3.162,0,0,0-3.4,0,.985.985,0,0,1-1.407-.377,3.16,3.16,0,0,0-2.947-1.7.985.985,0,0,1-1.03-1.03,3.16,3.16,0,0,0-.858-2.308c-.017-.019-.034-.037-.052-.054a3.134,3.134,0,0,0-.791-.585.985.985,0,0,1-.377-1.407,3.161,3.161,0,0,0,0-3.4A.985.985,0,0,1,144,117.07a3.161,3.161,0,0,0,1.7-2.947.985.985,0,0,1,1.03-1.03,3.161,3.161,0,0,0,2.947-1.7.985.985,0,0,1,1.407-.377,3.161,3.161,0,0,0,3.4,0,.985.985,0,0,1,1.407.377,3.161,3.161,0,0,0,2.947,1.7.985.985,0,0,1,1.03,1.03,3.161,3.161,0,0,0,1.7,2.947.985.985,0,0,1,.377,1.407,3.161,3.161,0,0,0,0,3.4A.974.974,0,0,1,162.076,122.667Z" transform="translate(-121.295 -108.691)" fill="#ea6e2c"/>
        </g>
      </g>
    </g>
    <g id="Group_348" data-name="Group 348" transform="translate(0)">
      <path id="Path_1191" data-name="Path 1191" d="M-295.234,175.837l-.172-.088c-17.917-9.147-15.51-26.862-15.485-27.041l.048-.322h.325c11.391,0,14.971-3.671,15.006-3.708l.278-.3.275.3c.034.036,3.614,3.707,15,3.707h.326l.048.322c.027.178,2.432,17.894-15.485,27.041Zm-14.945-26.7c-.226,2.4-.981,17.607,14.945,25.85,15.926-8.242,15.171-23.45,14.945-25.85-9.892-.062-13.916-2.816-14.945-3.691C-296.264,146.322-300.288,149.077-310.18,149.139Z" transform="translate(311.012 -144.382)" fill="#009b9d"/>
    </g>
    <g id="Group_362" data-name="Group 362" transform="translate(13.285 34.386)">
      <g id="Group_359" data-name="Group 359" transform="translate(2.394 5.166)">
        <path id="Path_1196" data-name="Path 1196" d="M-536.235,335.6H-557.4V294.783h.754v40.064h20.413Z" transform="translate(557.402 -294.783)" fill="#009b9d"/>
      </g>
      <g id="Group_360" data-name="Group 360" transform="translate(0 0)">
        <path id="Path_1197" data-name="Path 1197" d="M-557.695,293.716a2.774,2.774,0,0,1-2.771-2.772,2.774,2.774,0,0,1,2.771-2.771,2.775,2.775,0,0,1,2.771,2.771A2.775,2.775,0,0,1-557.695,293.716Zm0-4.788a2.019,2.019,0,0,0-2.017,2.016,2.019,2.019,0,0,0,2.017,2.017,2.018,2.018,0,0,0,2.016-2.017A2.019,2.019,0,0,0-557.695,288.928Z" transform="translate(560.466 -288.173)" fill="#009b9d"/>
      </g>
    </g>
  </g>
</svg>
