<svg xmlns="http://www.w3.org/2000/svg" width="80.336" height="87.528" viewBox="0 0 80.336 87.528">
  <g id="profile-icon" transform="translate(0 0)">
    <g id="approved" transform="translate(34.386 32.042)">
      <g id="Group_294" data-name="Group 294" transform="translate(0 18.098)">
        <g id="Group_293" data-name="Group 293">
          <path id="Path_1148" data-name="Path 1148" d="M45.85,167.318a1.083,1.083,0,1,0,.318.766A1.091,1.091,0,0,0,45.85,167.318Z" transform="translate(-44 -167)" fill="#009b9d"/>
        </g>
      </g>
      <g id="Group_296" data-name="Group 296" transform="translate(0)">
        <g id="Group_295" data-name="Group 295">
          <path id="Path_1149" data-name="Path 1149" d="M86.7,0H64.771a1.084,1.084,0,1,0,0,2.167H86.7a1.085,1.085,0,0,1,1.084,1.084V52.235A1.085,1.085,0,0,1,86.7,53.319H47.251a1.085,1.085,0,0,1-1.084-1.084V23.228a1.084,1.084,0,0,0-2.167,0V52.235a3.255,3.255,0,0,0,3.251,3.251H86.7a3.255,3.255,0,0,0,3.251-3.251V3.251A3.255,3.255,0,0,0,86.7,0Z" transform="translate(-44)" fill="#009b9d"/>
        </g>
      </g>
      <g id="Group_298" data-name="Group 298" transform="translate(8.745 4.335)">
        <g id="Group_297" data-name="Group 297">
          <path id="Path_1150" data-name="Path 1150" d="M138.926,40a14.588,14.588,0,0,0-2.2.167,1.084,1.084,0,1,0,.328,2.142,12.4,12.4,0,0,1,1.874-.142,12.239,12.239,0,0,1,9.366,20.126,10.858,10.858,0,0,0-5.657-4.734,5.294,5.294,0,0,0,1.6-3.8V52.707a5.31,5.31,0,1,0-10.62,0v1.057a5.293,5.293,0,0,0,1.6,3.8,10.86,10.86,0,0,0-5.669,4.754,12.206,12.206,0,0,1-2.7-5.858,1.084,1.084,0,0,0-2.138.358A14.415,14.415,0,1,0,138.926,40Zm-3.143,12.707a3.143,3.143,0,1,1,6.286,0v1.057a3.143,3.143,0,1,1-6.286,0Zm3.143,13.953a12.231,12.231,0,0,1-7.77-2.762,8.668,8.668,0,0,1,15.53-.018A12.189,12.189,0,0,1,138.926,66.66Z" transform="translate(-124.696 -40)" fill="#ea6e2c"/>
        </g>
      </g>
      <g id="Group_300" data-name="Group 300" transform="translate(16.511 43.132)">
        <g id="Group_299" data-name="Group 299">
          <path id="Path_1151" data-name="Path 1151" d="M212.83,398H197.441a1.084,1.084,0,0,0,0,2.167H212.83a1.084,1.084,0,0,0,0-2.167Z" transform="translate(-196.357 -398.002)" fill="#009b9d"/>
        </g>
      </g>
      <g id="Group_302" data-name="Group 302" transform="translate(11.882 37.063)">
        <g id="Group_301" data-name="Group 301">
          <path id="Path_1152" data-name="Path 1152" d="M155.49,342.318a1.083,1.083,0,1,0,.318.766A1.091,1.091,0,0,0,155.49,342.318Z" transform="translate(-153.64 -342)" fill="#009b9d"/>
        </g>
      </g>
      <g id="Group_304" data-name="Group 304" transform="translate(11.882 43.132)">
        <g id="Group_303" data-name="Group 303">
          <path id="Path_1153" data-name="Path 1153" d="M155.49,398.318a1.083,1.083,0,1,0,.318.766A1.09,1.09,0,0,0,155.49,398.318Z" transform="translate(-153.64 -398)" fill="#009b9d"/>
        </g>
      </g>
      <g id="Group_306" data-name="Group 306" transform="translate(16.511 37.063)">
        <g id="Group_305" data-name="Group 305">
          <path id="Path_1154" data-name="Path 1154" d="M212.83,342H197.441a1.084,1.084,0,0,0,0,2.167H212.83a1.084,1.084,0,0,0,0-2.167Z" transform="translate(-196.357 -342.002)" fill="#009b9d"/>
        </g>
      </g>
      <g id="Group_308" data-name="Group 308" transform="translate(4.629 5.928)">
        <g id="Group_307" data-name="Group 307">
          <path id="Path_1155" data-name="Path 1155" d="M94.834,55.018a1.084,1.084,0,0,0-1.533,0l-3.529,3.529-1.206-1.206a1.084,1.084,0,0,0-1.533,1.533l1.972,1.972a1.084,1.084,0,0,0,1.533,0l4.3-4.3A1.084,1.084,0,0,0,94.834,55.018Z" transform="translate(-86.716 -54.701)" fill="#ea6e2c"/>
        </g>
      </g>
      <g id="Group_310" data-name="Group 310" transform="translate(0)">
        <g id="Group_309" data-name="Group 309">
          <path id="Path_1156" data-name="Path 1156" d="M52.887,0a8.887,8.887,0,1,0,8.887,8.887A8.9,8.9,0,0,0,52.887,0Zm0,15.606a6.719,6.719,0,1,1,6.719-6.719A6.727,6.727,0,0,1,52.887,15.606Z" transform="translate(-44)" fill="#ea6e2c"/>
        </g>
      </g>
    </g>
    <g id="Group_347" data-name="Group 347">
      <g id="Group_345" data-name="Group 345" transform="translate(21.454 9.406)">
        <path id="Path_1189" data-name="Path 1189" d="M-587.9,361.551l-.283-.739a4.025,4.025,0,0,1-.745-.171l-.578.542-1.675-1.193.322-.723a4.031,4.031,0,0,1-.4-.648l-.792-.025-.342-2.029.74-.282a3.906,3.906,0,0,1,.171-.744l-.542-.578,1.193-1.676.722.323a3.955,3.955,0,0,1,.647-.4l.026-.792,2.028-.341.283.739a4.051,4.051,0,0,1,.745.17l.577-.542,1.676,1.193-.322.722a4.084,4.084,0,0,1,.4.649l.791.024.342,2.027-.739.284a4.035,4.035,0,0,1-.171.744l.542.577-1.192,1.676-.724-.323a3.927,3.927,0,0,1-.647.4l-.025.792Zm-1.16-1.563.165.063a3.416,3.416,0,0,0,.939.216l.177.016.242.634,1.114-.188.021-.678.162-.073a3.413,3.413,0,0,0,.815-.511l.136-.113.619.277.655-.921-.464-.495.063-.166a3.443,3.443,0,0,0,.215-.937l.016-.177.634-.242-.187-1.114-.679-.022-.071-.162a3.463,3.463,0,0,0-.51-.815l-.114-.136.276-.62-.921-.654-.494.464-.166-.064a3.445,3.445,0,0,0-.938-.215l-.177-.016-.242-.634-1.114.188-.022.678-.162.073a3.413,3.413,0,0,0-.815.51l-.136.114-.62-.276-.655.92.464.495-.063.165a3.417,3.417,0,0,0-.214.938l-.016.177-.635.243.188,1.114.677.02.073.162a3.41,3.41,0,0,0,.51.816l.114.135-.277.62.921.655Zm1.4-.94a2.225,2.225,0,0,1-1.293-.415h0a2.238,2.238,0,0,1-.526-3.118,2.239,2.239,0,0,1,3.118-.525,2.239,2.239,0,0,1,.526,3.118,2.225,2.225,0,0,1-1.451.908A2.2,2.2,0,0,1-587.664,359.047Zm.006-3.907a1.67,1.67,0,0,0-1.363.7,1.657,1.657,0,0,0-.286,1.245,1.661,1.661,0,0,0,.678,1.084h0a1.66,1.66,0,0,0,1.245.286,1.658,1.658,0,0,0,1.083-.678,1.671,1.671,0,0,0-.392-2.329A1.652,1.652,0,0,0-587.658,355.141Z" transform="translate(592.401 -352.071)" fill="#009b9d"/>
      </g>
      <g id="Group_346" data-name="Group 346" transform="translate(0 0)">
        <path id="Path_1190" data-name="Path 1190" d="M-609.614,361.287l-.632-1.651a8.916,8.916,0,0,1-1.983-.455l-1.288,1.209-3.5-2.488.721-1.614a8.951,8.951,0,0,1-1.079-1.724l-1.767-.055-.713-4.234,1.651-.631a8.957,8.957,0,0,1,.455-1.983l-1.209-1.288,2.489-3.5,1.613.721a8.938,8.938,0,0,1,1.724-1.079l.056-1.767,4.233-.714.632,1.651a8.9,8.9,0,0,1,1.983.455l1.288-1.209,3.5,2.488-.72,1.614a9.043,9.043,0,0,1,1.079,1.724l1.766.056.714,4.233-1.651.631a8.955,8.955,0,0,1-.454,1.983l1.209,1.287-2.489,3.5-1.613-.721a9.006,9.006,0,0,1-1.724,1.08l-.057,1.766Zm-2.789-2.977.22.084a8.211,8.211,0,0,0,2.238.513l.236.02.578,1.512,3.014-.509.052-1.618.216-.1A8.225,8.225,0,0,0-603.9,357l.181-.152,1.477.66,1.772-2.492-1.107-1.178.084-.221a8.2,8.2,0,0,0,.513-2.238l.02-.235,1.512-.578-.508-3.014-1.619-.052-.1-.216a8.184,8.184,0,0,0-1.218-1.946l-.152-.181.66-1.476-2.491-1.773-1.179,1.107-.22-.084a8.179,8.179,0,0,0-2.238-.513l-.235-.02-.578-1.512-3.014.509-.052,1.618-.216.1a8.185,8.185,0,0,0-1.946,1.218l-.181.152-1.477-.66-1.772,2.491,1.107,1.179-.084.221a8.2,8.2,0,0,0-.513,2.237l-.02.235-1.512.578.508,3.015,1.618.052.1.216a8.205,8.205,0,0,0,1.218,1.947l.152.181-.66,1.477,2.491,1.772Zm3.169-2.768a4.852,4.852,0,0,1-2.824-.9,4.85,4.85,0,0,1-1.984-3.167,4.848,4.848,0,0,1,.837-3.642,4.887,4.887,0,0,1,6.809-1.147,4.888,4.888,0,0,1,1.147,6.809A4.881,4.881,0,0,1-609.234,355.542Zm.015-9.01a4.166,4.166,0,0,0-.694.058,4.1,4.1,0,0,0-2.678,1.678,4.1,4.1,0,0,0-.707,3.079,4.1,4.1,0,0,0,1.677,2.677,4.133,4.133,0,0,0,5.757-.97,4.1,4.1,0,0,0,.707-3.079,4.105,4.105,0,0,0-1.677-2.678A4.1,4.1,0,0,0-609.219,346.532Z" transform="translate(619.853 -340.035)" fill="#009b9d"/>
      </g>
    </g>
    <g id="Group_361" data-name="Group 361" transform="translate(7.815 28.916)">
      <g id="Group_359" data-name="Group 359" transform="translate(2.394 5.166)">
        <path id="Path_1196" data-name="Path 1196" d="M-536.235,335.6H-557.4V294.783h.754v40.064h20.413Z" transform="translate(557.402 -294.783)" fill="#009b9d"/>
      </g>
      <g id="Group_360" data-name="Group 360" transform="translate(0 0)">
        <path id="Path_1197" data-name="Path 1197" d="M-557.695,293.716a2.774,2.774,0,0,1-2.771-2.772,2.774,2.774,0,0,1,2.771-2.771,2.775,2.775,0,0,1,2.771,2.771A2.775,2.775,0,0,1-557.695,293.716Zm0-4.788a2.019,2.019,0,0,0-2.017,2.016,2.019,2.019,0,0,0,2.017,2.017,2.018,2.018,0,0,0,2.016-2.017A2.019,2.019,0,0,0-557.695,288.928Z" transform="translate(560.466 -288.173)" fill="#009b9d"/>
      </g>
    </g>
  </g>
</svg>
