<?xml version="1.0" encoding="utf-8"?>
<!-- Generator: Adobe Illustrator 22.0.0, SVG Export Plug-In . SVG Version: 6.00 Build 0)  -->
<svg version="1.1" id="Layer_1" width="176" height="50" xmlns="http://www.w3.org/2000/svg" xmlns:xlink="http://www.w3.org/1999/xlink" x="0px" y="0px"
	 viewBox="0 0 390 150" style="enable-background:new 0 0 390 150;" xml:space="preserve">
<style type="text/css">
	.st0{opacity:0.24;fill:#CFEBEC;}
	.st1{opacity:9.000000e-02;fill:#009B9D;}
	.st2{fill:#FFFFFF;}
	.st3{fill:#009B9D;}
	.st4{fill:#EA6E2C;}
	.st5{fill:#231F20;}
	.st6{opacity:0.2;fill:#009B9D;}
	.st7{opacity:0.2;fill:#EA6E2C;}
	.st8{opacity:0.2;fill:#231F20;}
	.st9{fill:#009B9D;stroke:#009B9D;stroke-miterlimit:10;}
	.st10{fill:none;stroke:#E6E7E7;stroke-miterlimit:10;}
	.st11{fill:#595A5C;}
	.st12{fill:url(#SVGID_1_);}
	.st13{fill:url(#SVGID_2_);}
	.st14{fill:url(#SVGID_3_);}
	.st15{fill:url(#SVGID_4_);}
	.st16{fill:url(#SVGID_5_);}
	.st17{fill:url(#SVGID_6_);}
	.st18{fill:url(#SVGID_7_);}
	.st19{fill:url(#SVGID_8_);}
	.st20{fill:url(#SVGID_9_);}
	.st21{fill:url(#SVGID_10_);}
	.st22{fill:url(#SVGID_11_);}
	.st23{fill:url(#SVGID_12_);}
	.st24{fill:url(#SVGID_13_);}
	.st25{fill:url(#SVGID_14_);}
	.st26{fill:url(#SVGID_15_);}
	.st27{fill:url(#SVGID_16_);}
	.st28{fill:#6E6F71;}
	.st29{fill:#E6E7E7;}
	.st30{fill:url(#SVGID_17_);}
	.st31{fill:url(#SVGID_18_);}
	.st32{fill:url(#SVGID_19_);}
	.st33{fill:url(#SVGID_20_);}
	.st34{fill:url(#SVGID_21_);}
	.st35{fill:url(#SVGID_22_);}
	.st36{fill:url(#SVGID_23_);}
	.st37{fill:url(#SVGID_24_);}
	.st38{fill:#97D2D2;}
	.st39{fill:#008C88;}
	.st40{fill:#007D7C;}
	.st41{fill:#CFCFCE;}
	.st42{fill:#686868;}
	.st43{fill:#C9C9C9;}
	.st44{fill:#4F4F4F;}
	.st45{fill:#F6FBFE;}
	.st46{fill:#2F7EA4;}
	.st47{fill:#171717;}
	.st48{fill:#123F54;}
	.st49{fill:#00496D;}
	.st50{fill:#1D526F;}
	.st51{fill:#004F78;}
	.st52{fill:#00619C;}
	.st53{fill:#F5996C;}
	.st54{fill:#6C4536;}
	.st55{fill:#235A7C;}
	.st56{fill:#B6D9EF;}
	.st57{fill:#017877;}
	.st58{fill:#2BBEC0;}
	.st59{fill:#F6FBFD;}
	.st60{fill:#F3F4F4;}
	.st61{clip-path:url(#SVGID_26_);}
	.st62{fill:#FACBD6;}
	.st63{fill:#C4A499;}
	.st64{fill:#C6C5C5;}
	.st65{fill:#F495B0;}
	.st66{fill:#89C0E8;}
	.st67{clip-path:url(#SVGID_28_);}
	.st68{clip-path:url(#SVGID_30_);}
	.st69{fill:#756F8E;}
	.st70{fill:#957966;}
	.st71{fill:#FBAE54;}
	.st72{clip-path:url(#SVGID_32_);}
	.st73{clip-path:url(#SVGID_34_);}
	.st74{fill:#B54A26;}
	.st75{fill:#542C0E;}
	.st76{opacity:0.6;fill:#CAEBF9;}
	.st77{opacity:0.8;}
	.st78{fill:#7D7D7D;}
	.st79{fill:#4C4C4D;}
	.st80{fill:#999999;}
	.st81{clip-path:url(#SVGID_36_);}
	.st82{clip-path:url(#SVGID_38_);}
	.st83{clip-path:url(#SVGID_40_);}
</style>
<g>
	<g>
		<linearGradient id="SVGID_1_" gradientUnits="userSpaceOnUse" x1="74.1186" y1="187.4843" x2="117.007" y2="91.5808">
			<stop  offset="0" style="stop-color:#7E1C17"/>
			<stop  offset="1" style="stop-color:#EA6E2C"/>
		</linearGradient>
		<path class="st12" d="M102.6,142.1c2.9-3,5.3-6.4,7.1-10.2c1.3-2.7,2.5-5.6,3.8-8.3l14.4-33.7l14.5-33.7l15.2-34.1
			c1.1-2.3,2.1-4.7,3.4-6.9c1.4-2.4,3.1-4.6,5-6.6c2-1.9,4.2-3.6,6.8-4.8c1.3-0.6,2.7-1.1,4-1.5h-14c0,0-13.6,0.2-21.9,17.5
			c-0.5,1.1-38.8,89.8-44.8,103.7c-1.7,3.8-3,6.7-3.8,8.3c-8.1,16.8-20.6,16.5-20.6,16.5h17.7c3.9-0.2,7.5-2,10.6-4.1
			C100.9,143.6,101.8,142.9,102.6,142.1z"/>
		<linearGradient id="SVGID_2_" gradientUnits="userSpaceOnUse" x1="92.4111" y1="195.681" x2="134.1909" y2="99.7764">
			<stop  offset="0" style="stop-color:#7E1C17"/>
			<stop  offset="1" style="stop-color:#EA6E2C"/>
		</linearGradient>
		<path class="st13" d="M183.9,3.3c-2.7,0-5.4,0.9-7.9,2.1c-2.5,1.2-4.7,3-6.6,4.9c-1.9,2-3.5,4.3-4.9,6.7c-1.3,2.4-2.5,5-3.6,7.6
			l-0.2,0.5l0,0l-14.1,32.9l-14.5,33.2c-4.8,11.1-9.8,22.1-14.7,33.2c-1.3,2.7-2.5,5.5-3.9,8.2c-1.4,2.7-3.2,5.3-5.2,7.6
			c-1.3,1.5-3.6,3.6-5.2,4.6c-3.1,2-6.7,3.5-10.5,3.6h16.5c0,0,13.2-0.2,21.3-17.1c0.5-1.1,3.1-7.1,4.5-10.4
			c10.8-24.3,34.5-79.3,40.5-93.3c1.7-3.8,3-6.7,3.8-8.3C184.9,7.3,192.8,4,197,3.1C192.6,3.2,188.2,3.2,183.9,3.3z"/>
	</g>
	<g>
		<linearGradient id="SVGID_3_" gradientUnits="userSpaceOnUse" x1="5.5733" y1="103.9307" x2="86.8925" y2="103.9307">
			<stop  offset="0" style="stop-color:#007E7D"/>
			<stop  offset="1" style="stop-color:#009A9B"/>
		</linearGradient>
		<path class="st14" d="M69.2,138.2c-2.1-2.8-3.9-5.9-5.3-9.1c-1.5-3.2-3-6.3-4.4-9.5c-2.9-6.4-5.3-12.9-8.1-19.3
			c-2.7-6.2-10.4-24.5-11.8-27c-1.5-2.5-3.1-4.8-5.1-6.9c-2-2-4.3-3.8-6.9-5c-2.5-1.2-4.4-1.9-7.2-1.9c-4.9,0-10.5,0.1-14.8,0
			c4.4,1.1,13.1,4.2,18.8,16.1c0.9,2,2.6,5.6,4.7,10.4c7.1,16.4,2.7,7.5,13.8,32.6c2,4.7,4.8,11.5,5.3,12.6
			c8.1,16.9,21.3,17.1,21.3,17.1h17.3c-3.5-0.1-6.9-1.2-9.9-3.1C74,143.4,71.3,141,69.2,138.2z"/>
		<linearGradient id="SVGID_4_" gradientUnits="userSpaceOnUse" x1="95.0494" y1="151.3809" x2="75.3374" y2="119.7389">
			<stop  offset="0" style="stop-color:#007E7D"/>
			<stop  offset="1" style="stop-color:#009A9B"/>
		</linearGradient>
		<path class="st15" d="M86.6,131.5c-0.9-1.9-2.6-5.5-4.7-10.2c-6.9-16.1-2.7-7.4-13.6-32.1c-2-4.6-5.1-11.4-5.6-12.5
			c-8.1-16.9-21.3-17.1-21.3-17.1h-15c4.4,1.2,8.4,3.8,11.6,7c2.2,2.2,4,4.8,5.6,7.4c1.4,2.5,12,26.9,12,26.9
			c2.7,6.2,5,12.6,7.7,18.8c1.3,3.1,2.7,6.2,4,9.3c1.3,3.1,2.9,6.1,4.8,8.8c1.9,2.7,4.3,5.1,7.1,7c1.4,0.9,2.9,1.7,4.5,2.3
			c1.6,0.6,3.2,1,4.9,1.1h18.9C107.6,148.3,94.9,148.6,86.6,131.5z"/>
	</g>
</g>
<path d="M224.1,68.5l-13.9,41.9h-7.7h-4.2l-13.8-41.9h11.9l7.8,29.5l7.8-29.5H224.1z"/>
<path d="M275.7,110.4l13.9-41.9h7.7h4.2l13.8,41.9h-11.9l-7.8-29.5l-7.8,29.5H275.7z"/>
<path d="M227.5,110.4V68.5h10.7v41.9H227.5z"/>
<path d="M278.3,77.2h-12.5v33.2h-10.8V77.2h-12.2v-8.7h22.9h12.5V77.2z"/>
<path d="M329.6,77.2v8.3h16.2v8.7h-16.2v16.2h-10.7V68.5h10.7h17.6v8.7H329.6z"/>
<path d="M374,68.5h11.5l-13.3,27v14.9h-10.9V95.5l-13.4-27h11.5l7.3,17.4L374,68.5z"/>
</svg>
